{"V-Data":[{"ID":2841171,"Status":"On","Year":2003,"Manufacturer":"Albin","Model":"Tournament","VesselName":"Jack Attack","PriceUSD":54900,"DisplayLengthFeet":28,"BeamFeet":10,"City":"Southold","State":"New York","FuelType":"Diesel","Type":"Power","ListingOwnerBrokerageID":40000087,"ListingOwnerName":"Mark Mandrakos","image":"https://cdn.yachtbroker.org/images/2841171_4af0736a.jpg","hours":0,"ListingOwnerBrokerageName":"Brewer Yacht Sales","ListingOwnerEmail":"mmandrakos@breweryacht.com","ListingOwnerCell":"516-313-7050","ListingOwnerPhone":"516-313-7050","Summary":"🚨🌊 MUST-SEE DEAL! 🌊🚨\r\n🎣 🚤 2003 Albin 28 Tournament - Ready to Fish & Cruise! 🚤 🎣\r\nPRICED TO MOVE!\r\nDon't miss this opportunity to own a capable and comfortable 28-foot Albin Tournament, perfectly equipped for serious offshore fishing or relaxing weekend getaways. This well-maintained 2003 model","engines":[]},{"ID":2850770,"Status":"On","Year":2016,"Manufacturer":"Intrepid","Model":null,"VesselName":null,"PriceUSD":449000,"DisplayLengthFeet":43,"BeamFeet":12,"City":"Saint Petersburg","State":"Florida","FuelType":"Gas/Petrol","Type":"Power","ListingOwnerBrokerageID":40000047,"ListingOwnerName":"Roger Cole","image":"https://cdn.yachtbroker.org/images/2850770_8222f6fe_1.jpg","hours":0,"ListingOwnerBrokerageName":"United Yacht Sales","ListingOwnerEmail":"rogercole@unitedyacht.com","ListingOwnerCell":"1-727-460-0228","ListingOwnerPhone":"","Summary":"430 Intrepid Sport Yacht 2016","engines":[]},{"ID":2833107,"Status":"On","Year":2005,"Manufacturer":"MJM","Model":"34z Downeast","VesselName":"JOY!","PriceUSD":330000,"DisplayLengthFeet":34,"BeamFeet":11,"City":"Fort Lauderdale","State":"Florida","FuelType":"Diesel","Type":"Power","ListingOwnerBrokerageID":40000100,"ListingOwnerName":"Jennifer Richards","image":"https://cdn.yachtbroker.org/images/2833107_d49c9f04_1.jpg","hours":0,"ListingOwnerBrokerageName":"Down East Yachting","ListingOwnerEmail":"jennifer@downeastyachting.com","ListingOwnerCell":"1-443-852-0707","ListingOwnerPhone":"1-561-744-5740","Summary":"Joy! is a perfect example of a classic Down East Styled dayboat/ weekender and needs to be seen to be fully appreciated!","engines":[]},{"ID":2840677,"Status":"On","Year":1994,"Manufacturer":"Carver","Model":"Aft Cabin Motor Yacht","VesselName":"SEA DELIVERY","PriceUSD":35000,"DisplayLengthFeet":35,"BeamFeet":13,"City":"Amesbury","State":"Massachusetts","FuelType":"Gas/Petrol","Type":"Power","ListingOwnerBrokerageID":40000580,"ListingOwnerName":"Brandon Crigger","image":"https://cdn.yachtbroker.org/images/2840677_eedcf1a9_57.jpg","hours":0,"ListingOwnerBrokerageName":"Merri-Mar Yacht Basin","ListingOwnerEmail":"brandon@merri-maryachtbasin.com","ListingOwnerCell":"1-734-819-1183","ListingOwnerPhone":"1-978-465-3022","Summary":"Carver Yachts are known for thoughtful layouts, solid fiberglass construction, and unbeatable livability, and SEA DELIVERY is a perfect example. ","engines":[]},{"ID":2840974,"Status":"On","Year":2004,"Manufacturer":"Sabre","Model":"36 Flybridge","VesselName":"Ariadna","PriceUSD":229000,"DisplayLengthFeet":36,"BeamFeet":12,"City":"Oxford","State":"Maryland","FuelType":"Diesel","Type":"Power","ListingOwnerBrokerageID":40000518,"ListingOwnerName":"Pete Dierks","image":"https://cdn.yachtbroker.org/images/2840974_51f6f050_1.jpg","hours":0,"ListingOwnerBrokerageName":"DiMillo’s Yacht Sales","ListingOwnerEmail":"pdierks@dimillos.com","ListingOwnerCell":"","ListingOwnerPhone":"410-226-0100","Summary":"ARIADNA is a well-maintained Sabre 36 Fly Bridge with the factory hardtop.","engines":[]},{"ID":2850132,"Status":"On","Year":2017,"Manufacturer":"Sea Ray","Model":null,"VesselName":null,"PriceUSD":175000,"DisplayLengthFeet":31,"BeamFeet":10,"City":"Coral Gables","State":"Florida","FuelType":"Gas/Petrol","Type":"Power","ListingOwnerBrokerageID":40000219,"ListingOwnerName":"Tony Castro","image":"https://cdn.yachtbroker.org/images/2850132_2a26cd71_16.jpg","hours":0,"ListingOwnerBrokerageName":"Yacht Consulting Group","ListingOwnerEmail":"tony@yachtconsultinggroup.com","ListingOwnerCell":"1-305-951-5321","ListingOwnerPhone":"","Summary":"The 2017 Sea Ray 310 SLX is a premium luxury sport boat combining sleek styling, powerful performance, and spacious comfort. Designed for entertaining, it offers generous seating, high-end finishes, and smooth handling—perfect for day cruising, watersports, and family outings.","engines":[]},{"ID":2840493,"Status":"On","Year":2007,"Manufacturer":"Oceanco","Model":"Custom","VesselName":"ALFA NERO","PriceUSD":101066999,"DisplayLengthFeet":266,"BeamFeet":46,"City":"Marseille","State":null,"FuelType":"Diesel","Type":"Power","ListingOwnerBrokerageID":40000054,"ListingOwnerName":"Richard Higgins","image":"https://cdn.yachtbroker.org/images/2840493_fcf78cab_265.jpg","hours":0,"ListingOwnerBrokerageName":"Northrop and Johnson","ListingOwnerEmail":"richard.higgins@northropandjohnson.com","ListingOwnerCell":"+33 6 35 27 53 95","ListingOwnerPhone":"+33 4 93 34 84 01","Summary":"-","engines":[]},{"ID":2787698,"Status":"On","Year":2006,"Manufacturer":"Delta","Model":null,"VesselName":"LAUREL","PriceUSD":69500000,"DisplayLengthFeet":240,"BeamFeet":40,"City":null,"State":null,"FuelType":"Diesel","Type":"Power","ListingOwnerBrokerageID":40000128,"ListingOwnerName":"Mark Elliott","image":"https://cdn.yachtbroker.org/images/2787698_cc2282ba.jpg","hours":0,"ListingOwnerBrokerageName":"International Yacht Corporation","ListingOwnerEmail":"markassist@iyc.com","ListingOwnerCell":"1-305-794-1167","ListingOwnerPhone":"","Summary":"World Renowned LAUREL 240'/73.15m Delta 2006/2014 - A TOP pedigree vessel from Delta Marine, the most iconic of all US yachts.","engines":[]},{"ID":2840492,"Status":"On","Year":2013,"Manufacturer":"Dunya Yachts","Model":"Custom","VesselName":"AXIOMA","PriceUSD":62809999,"DisplayLengthFeet":236,"BeamFeet":40,"City":"Marseille","State":null,"FuelType":"Diesel","Type":"Power","ListingOwnerBrokerageID":40000054,"ListingOwnerName":"Richard Higgins","image":"https://cdn.yachtbroker.org/images/2840492_34827c0a_1300.jpg","hours":0,"ListingOwnerBrokerageName":"Northrop and Johnson","ListingOwnerEmail":"richard.higgins@northropandjohnson.com","ListingOwnerCell":"+33 6 35 27 53 95","ListingOwnerPhone":"+33 4 93 34 84 01","Summary":"-","engines":[]},{"ID":2818005,"Status":"On","Year":2010,"Manufacturer":"Icon","Model":null,"VesselName":"LOON","PriceUSD":42950000,"DisplayLengthFeet":221,"BeamFeet":37,"City":"Palma","State":null,"FuelType":"Diesel","Type":"Power","ListingOwnerBrokerageID":40000510,"ListingOwnerName":"Jim McConville","image":"https://cdn.yachtbroker.org/images/2818005_770714be_79.jpg","hours":0,"ListingOwnerBrokerageName":"Merle Wood & Associates","ListingOwnerEmail":"jim@merlewood.com","ListingOwnerCell":"954-849-0855","ListingOwnerPhone":"1-954-525-5111","Summary":"LOON is a 221’ Icon motoryacht with 6 decks and 7 staterooms and is considered the most famous and marketed charter yacht in the world.\r\nCombining comfort and luxury, Studio Linse (Interior Designer) created the interior with a minimalistic and refined elegance. ","engines":[]},{"ID":2849807,"Status":"On","Year":2028,"Manufacturer":"Aegean Yacht","Model":null,"VesselName":"AEGEAN 66M","PriceUSD":23500000,"DisplayLengthFeet":215,"BeamFeet":39,"City":null,"State":"Florida","FuelType":"Diesel","Type":"Power","ListingOwnerBrokerageID":40000054,"ListingOwnerName":"Sean Doyle","image":"https://cdn.yachtbroker.org/images/2849807_ef6759d1_29.JPG","hours":0,"ListingOwnerBrokerageName":"Northrop and Johnson","ListingOwnerEmail":"sean.doyle@northropandjohnson.com","ListingOwnerCell":"+1 954 478 3380","ListingOwnerPhone":"+1 954 522 3344","Summary":"-","engines":[]},{"ID":2851079,"Status":"On","Year":2021,"Manufacturer":"Chaparral","Model":"21 SSI","VesselName":null,"PriceUSD":47600,"DisplayLengthFeet":21,"BeamFeet":8,"City":"KEY WEST","State":"Florida","FuelType":"Gas/Petrol","Type":"Power","ListingOwnerBrokerageID":40000048,"ListingOwnerName":"Eric Evans","image":"https://cdn.yachtbroker.org/images/2851079_d52e4f5f.jpg","hours":0,"ListingOwnerBrokerageName":"Tampa Yacht Sales, INC","ListingOwnerEmail":"eric@tampayachtsales.com","ListingOwnerCell":"305.731.5459","ListingOwnerPhone":" 786.933.7116","Summary":"Clean, reliable, and ready for the water, this 2021 Chaparral 221 SSi is powered by a Yamaha 200HP outboard with only 133 hours. Known for its solid ride and versatile layout, the 221 SSi is a great fit for family cruising, sandbar days, watersports, or sunset runs. The spacious cockpit offers comfortable seating throughout with plenty of storage for gear and water toys. Yamaha power provides excellent fuel efficiency, reliability, and easy maintenance. The boat shows well and has been lightly used with low hours for its age. Whether you are looking for a first boat or a dependable family cruiser, this Chaparral is ready to enjoy immediately.","engines":[]},{"ID":2851046,"Status":"On","Year":2010,"Manufacturer":"Holland Jachtbouw","Model":"Classic","VesselName":"ATHOS","PriceUSD":49105999,"DisplayLengthFeet":210,"BeamFeet":35,"City":null,"State":null,"FuelType":"Diesel","Type":"Sail","ListingOwnerBrokerageID":40000310,"ListingOwnerName":"Georges Bourgoignie","image":"https://cdn.yachtbroker.org/images/2851046_e3126385.jpg","hours":0,"ListingOwnerBrokerageName":"Fraser Yachts","ListingOwnerEmail":"GeorgesB@FraserYachts.com","ListingOwnerCell":"1-305-491-2211","ListingOwnerPhone":"1-954-463-0600","Summary":"ATHOS is a truly remarkable yacht that stands out for its exceptional design, luxurious features, and unparalleled sailing capabilities. \r\n","engines":[]},{"ID":2832302,"Status":"On","Year":2022,"Manufacturer":"CRN","Model":"Custom","VesselName":"RIO","PriceUSD":58241999,"DisplayLengthFeet":203,"BeamFeet":36,"City":"San Juan","State":null,"FuelType":"Diesel","Type":"Power","ListingOwnerBrokerageID":40000054,"ListingOwnerName":"Lauren Littlejohn","image":"https://cdn.yachtbroker.org/images/2832302_358368c3.jpg","hours":0,"ListingOwnerBrokerageName":"Northrop and Johnson","ListingOwnerEmail":"Lauren.Littlejohn@northropandjohnson.com","ListingOwnerCell":"+1 754 422 1795 ","ListingOwnerPhone":"+1 954 522 3344","Summary":"-","engines":[]},{"ID":2820058,"Status":"On","Year":2026,"Manufacturer":"Ares Yachts","Model":null,"VesselName":"SIMENA","PriceUSD":52417799,"DisplayLengthFeet":203,"BeamFeet":35,"City":null,"State":null,"FuelType":"Diesel","Type":"Sail","ListingOwnerBrokerageID":40000054,"ListingOwnerName":"Sean McCarter","image":"https://cdn.yachtbroker.org/images/2820058_e7b4944f_958.jpg","hours":0,"ListingOwnerBrokerageName":"Northrop and Johnson","ListingOwnerEmail":"sean.mccarter@northropandjohnson.com","ListingOwnerCell":"+34 679 897 108","ListingOwnerPhone":"+34 971 707 900","Summary":"-","engines":[]},{"ID":2845849,"Status":"On","Year":2014,"Manufacturer":"Feadship","Model":"60 Meter Motor Yacht","VesselName":"Rock It","PriceUSD":49500000,"DisplayLengthFeet":198,"BeamFeet":35,"City":"West Palm Beach","State":"Florida","FuelType":"Diesel","Type":"Power","ListingOwnerBrokerageID":40000712,"ListingOwnerName":"Tom George, CPYB","image":"https://cdn.yachtbroker.org/images/2845849_5af50738_28.jpg","hours":0,"ListingOwnerBrokerageName":"DYB Group","ListingOwnerEmail":"tom@dybgrp.com","ListingOwnerCell":"1-727-709-5020","ListingOwnerPhone":"1-727-709-5020","Summary":"The 60.4m (198') motor yacht ROCK.IT was delivered by Dutch shipyard Feadship, De Vries in 2014.","engines":[]},{"ID":2823970,"Status":"On","Year":1988,"Manufacturer":"Custom","Model":null,"VesselName":"HAYAMA","PriceUSD":6737799,"DisplayLengthFeet":196,"BeamFeet":28,"City":"El gouna","State":null,"FuelType":"Diesel","Type":"Power","ListingOwnerBrokerageID":40000467,"ListingOwnerName":"Nicolas Valin","image":"https://cdn.yachtbroker.org/images/2823970_899fa61b_1.jpg","hours":0,"ListingOwnerBrokerageName":"One Superyachts","ListingOwnerEmail":"nv@onesuperyachts.mc","ListingOwnerCell":"+33 616 110 577","ListingOwnerPhone":"+33 608 983 273","Summary":"Hayma brings you back to what the essence of Yachting is enjoying life at sea with friends and family, in perfect comfort and safety. But that’s not all Hayama has been designed and improved for long cruising, reliability and all the modern features allowing her guests to enjoy life on board","engines":[]},{"ID":2805709,"Status":"On","Year":2009,"Manufacturer":"Trinity Yachts","Model":"Custom","VesselName":"UNBRIDLED","PriceUSD":22950000,"DisplayLengthFeet":191,"BeamFeet":35,"City":"Seattle","State":null,"FuelType":"Diesel","Type":"Power","ListingOwnerBrokerageID":40000054,"ListingOwnerName":"Kevin Merrigan","image":"https://cdn.yachtbroker.org/images/2805709_86f12fe3_397.jpg","hours":0,"ListingOwnerBrokerageName":"Northrop and Johnson","ListingOwnerEmail":"kevin.merrigan@northropandjohnson.com","ListingOwnerCell":"+1 954 647 5986","ListingOwnerPhone":"+1 954 522 3344","Summary":"-","engines":[]},{"ID":2843335,"Status":"On","Year":2027,"Manufacturer":"RMK Marine","Model":"Orca 58M","VesselName":null,"PriceUSD":47963999,"DisplayLengthFeet":190,"BeamFeet":39,"City":"Fort lauderdale","State":"Florida","FuelType":"Diesel","Type":"Power","ListingOwnerBrokerageID":40000047,"ListingOwnerName":"Juan Morillo","image":"https://cdn.yachtbroker.org/images/2843335_80d373e1_1.jpg","hours":0,"ListingOwnerBrokerageName":"United Yacht Sales","ListingOwnerEmail":"juanmorillo@unitedyacht.com","ListingOwnerCell":"1-305-917-3758","ListingOwnerPhone":"1-772-463-3131","Summary":"2027 RMK Yachts Orca 58M","engines":[]},{"ID":2806176,"Status":"On","Year":1962,"Manufacturer":"Custom","Model":null,"VesselName":"Salty","PriceUSD":2950000,"DisplayLengthFeet":189,"BeamFeet":null,"City":"Panama City","State":null,"FuelType":"Diesel","Type":"Power","ListingOwnerBrokerageID":40000238,"ListingOwnerName":"Daniel S Voorhees","image":"https://cdn.yachtbroker.org/images/2806176_9a4b22b1.jpg","hours":0,"ListingOwnerBrokerageName":"Professional Yacht Sales","ListingOwnerEmail":"daniel@proysi.com","ListingOwnerCell":"2064076411","ListingOwnerPhone":"727-228-7727","Summary":"This Canadian-built 58 meter passenger ship accommodates 75 passengers in 34 cabins. There are accommodations for 22 crew. Mechanically and structurally in excellent condition. Complete refit in 2015 /16 with fresh paint and launch in 2017. She is now in turnkey condition and ready for charter servi","engines":[]},{"ID":2802547,"Status":"On","Year":2000,"Manufacturer":"Jefferson","Model":"56 Rivanna","VesselName":null,"PriceUSD":460000,"DisplayLengthFeet":56,"BeamFeet":16,"City":"Harsens Island","State":"Michigan","FuelType":"Diesel","Type":"Power","ListingOwnerBrokerageID":40000014,"ListingOwnerName":"Gregory Bushara","image":"https://cdn.yachtbroker.org/images/2802547_1a4ca5d6_1.jpg","hours":0,"ListingOwnerBrokerageName":"Rick Obey Yacht Sales","ListingOwnerEmail":"greg@rickobeyyachtsales.com","ListingOwnerCell":"1-786-348-3820","ListingOwnerPhone":"1-954-980-8121","Summary":"This Purely Freshwater Jefferson has lived its life in the Louisville Metro area, home of Jefferson Yachts, until early 2021. ","engines":[]},{"ID":2818100,"Status":"On","Year":2007,"Manufacturer":"Aegean Yacht","Model":null,"VesselName":"YAZZ","PriceUSD":9992500,"DisplayLengthFeet":183,"BeamFeet":32,"City":"Bodrum","State":null,"FuelType":"Diesel","Type":"Sail","ListingOwnerBrokerageID":40000035,"ListingOwnerName":"Mathieu Bardon","image":"https://cdn.yachtbroker.org/images/2818100_dd7cc958_0.jpg","hours":0,"ListingOwnerBrokerageName":"Worth Avenue Yachts","ListingOwnerEmail":"Mathieu@WorthAvenueYachts.com","ListingOwnerCell":"+33 6 36 60 06 97","ListingOwnerPhone":"+377 99 90 7463","Summary":"YAZZ, a stunning vessel launched by Aegean Yacht in 2007, seamlessly combines classic elegance with modern amenities. Its spacious social areas, a wide range of water toys, attentive crew, and resident DJ create the perfect atmosphere for entertainment. ","engines":[]},{"ID":2783149,"Status":"On","Year":1981,"Manufacturer":"CRN","Model":"Custom","VesselName":"Wind of Fortune","PriceUSD":0,"DisplayLengthFeet":171,"BeamFeet":27,"City":"Athens","State":null,"FuelType":"Diesel","Type":"Power","ListingOwnerBrokerageID":40000036,"ListingOwnerName":"Yannis Zagorakis","image":"https://cdn.yachtbroker.org/images/2783149_c3081259.jpg","hours":0,"ListingOwnerBrokerageName":"Hargrave Custom Yachts","ListingOwnerEmail":"yannis@hargrave.org","ListingOwnerCell":"1-954-249-4308","ListingOwnerPhone":"1-954-463-0555","Summary":"The 172'7\" motor yacht 'Wind of Fortune' build by the Italian shipyard CRN for a Royal family in 1981 and she was refitted in 2020 and 2022 (including full hull paint job). She offers flexible accommodation for up to 16 guests in 7 cabins with an interior by Merritt Knowles Design Group. ","engines":[]},{"ID":2805782,"Status":"On","Year":2014,"Manufacturer":"Astilleros Buquebus","Model":"Custom","VesselName":"DONA FRANCISCA","PriceUSD":13500000,"DisplayLengthFeet":172,"BeamFeet":28,"City":"València","State":null,"FuelType":"Diesel","Type":"Sail","ListingOwnerBrokerageID":40000054,"ListingOwnerName":"Sean McCarter","image":"https://cdn.yachtbroker.org/images/2805782_3d6049af_571.jpg","hours":0,"ListingOwnerBrokerageName":"Northrop and Johnson","ListingOwnerEmail":"sean.mccarter@northropandjohnson.com","ListingOwnerCell":"+34 679 897 108","ListingOwnerPhone":"+34 971 707 900","Summary":"-","engines":[]}],"total":8128,"last_page":339,"current_page":1,"per_page":24}